<svg width="50" height="50" viewBox="0 0 50 50" fill="none" xmlns="http://www.w3.org/2000/svg">
<g opacity="0.5">
<circle cx="25" cy="25" r="24.5" fill="#34407D" stroke="#34407D"/>
<line x1="10.0002" y1="25.6667" x2="40.0002" y2="25.6667" stroke="#FBFF22" stroke-width="2"/>
<line x1="24.3332" y1="9.98815" x2="24.6886" y2="39.9861" stroke="#FBFF22" stroke-width="2"/>
</g>
</svg>
