<svg width="30" height="30" viewBox="0 0 30 30" fill="none" xmlns="http://www.w3.org/2000/svg">
<path d="M23.6333 16.6834C23.6333 21.2375 20.1083 24.9667 15.6375 25.2917C22.075 21.5334 22.85 14.9834 17.5625 8.82502L17.5 8.75002C16.1375 7.17502 18.1 4.66669 18.1 4.66669H18.9292C19.6708 4.66669 20.2792 5.27502 20.2792 6.01669V6.02502C20.2792 6.33335 20.1708 6.62085 19.9917 6.85002C19.8542 7.03335 19.6667 7.17502 19.4542 7.26669H19.45C18.9625 7.75002 18.5333 8.57085 19.7833 9.49585C19.7958 9.50419 19.8167 9.52085 19.8292 9.52919C19.875 9.55835 19.9292 9.59169 19.975 9.62919C20.5875 10.0584 21.1417 10.5709 21.6208 11.1459C22.0583 11.6667 22.4417 12.2417 22.7417 12.8667C22.7583 12.8917 22.7708 12.9209 22.7875 12.9542C22.85 13.0917 22.9083 13.225 22.9625 13.3625C23.0042 13.475 23.05 13.5875 23.0875 13.6959C23.1333 13.8125 23.1667 13.925 23.2 14.0334C23.2 14.0375 23.2042 14.0417 23.2042 14.0459C23.2333 14.15 23.2667 14.2584 23.2958 14.3625C23.3 14.3792 23.3083 14.4 23.3125 14.4167C23.325 14.4667 23.3375 14.5084 23.3458 14.5584C23.3667 14.6209 23.3833 14.6875 23.3958 14.7542C23.4083 14.8209 23.425 14.8792 23.4375 14.9459C23.45 14.9959 23.4625 15.0542 23.475 15.1084C23.475 15.1125 23.475 15.125 23.4792 15.1292C23.5 15.25 23.5208 15.3625 23.5375 15.4709C23.5583 15.6209 23.575 15.7584 23.5917 15.8834C23.6 15.9709 23.6083 16.0542 23.6125 16.125C23.6375 16.475 23.6333 16.6834 23.6333 16.6834Z" fill="#FBBD39" stroke="#FBBD39" stroke-width="0.5" stroke-miterlimit="10" stroke-linecap="round" stroke-linejoin="round"/>
<path d="M15.6375 25.2917C15.5667 25.3 15.4958 25.3042 15.4292 25.3042C15.2875 25.3125 15.1417 25.3167 15 25.3167C10.2333 25.3167 6.36667 21.45 6.36667 16.6834V16.6292C6.36667 16.5125 6.37084 16.4 6.37917 16.2834C6.37917 16.2334 6.38334 16.1834 6.3875 16.125C6.39167 16.0542 6.4 15.9708 6.40834 15.8834C6.42084 15.775 6.4375 15.6542 6.45834 15.525C6.46667 15.4625 6.47917 15.3959 6.4875 15.325C6.55834 14.9292 6.6625 14.4584 6.82084 13.9542C6.93283 13.6139 7.06359 13.28 7.2125 12.9542C7.225 12.9209 7.24167 12.8917 7.25834 12.8667C7.5375 12.2709 8.37917 11.1459 8.37917 11.1459C8.85834 10.5709 9.4125 10.0584 10.025 9.62919C10.0708 9.59169 10.125 9.55835 10.1708 9.52919C10.1833 9.52085 10.2042 9.50419 10.2167 9.49585C11.4458 8.58335 11.05 7.77085 10.5708 7.28752C10.325 7.19585 10.1125 7.03335 9.9625 6.82502C9.95417 6.82085 9.95 6.81669 9.95 6.81669C9.7875 6.59169 9.69167 6.32085 9.69167 6.02502V6.01669C9.69167 5.27502 10.2958 4.66669 11.0417 4.66669H18.1C18.1 4.66669 16.1375 7.17502 17.5 8.75002L17.5625 8.82502C22.85 14.9834 22.075 21.5333 15.6375 25.2917Z" fill="#FBFF22" stroke="#FBFF22" stroke-width="0.5" stroke-miterlimit="10" stroke-linecap="round" stroke-linejoin="round"/>
<path d="M6.86917 14.5079C6.90709 14.3167 6.95209 14.1284 7.00459 13.9434C6.95125 14.1404 6.90667 14.3288 6.86917 14.5079Z" fill="#34407D"/>
<path d="M7.11876 13.5542C7.07501 13.6817 7.04168 13.8134 7.00459 13.9434C7.03918 13.8163 7.07626 13.6867 7.11876 13.5542Z" fill="#34407D"/>
<path d="M6.79791 14.875C6.81791 14.7592 6.8425 14.6354 6.86916 14.5079C6.845 14.63 6.81583 14.7496 6.79791 14.875Z" fill="#34407D"/>
<path d="M6.69166 15.7958C6.68472 15.9083 6.68124 16.0167 6.68124 16.1292C6.68124 16.0667 6.68124 15.9542 6.69166 15.7958Z" fill="#34407D"/>
<path d="M17.6491 8.26373H12.3021" stroke="#34407D" stroke-width="0.5" stroke-miterlimit="10" stroke-linecap="round"/>
<path d="M23.6333 16.6841C23.6333 21.4496 19.7675 25.3154 15.0021 25.3154C10.2325 25.3154 6.36667 21.4496 6.36667 16.6841V16.6279C6.36667 16.5112 6.37084 16.3987 6.37917 16.2821C6.37917 16.2346 6.38375 16.1825 6.38834 16.1266C6.3925 16.0529 6.40084 15.9708 6.41 15.8841C6.4225 15.7758 6.43584 15.655 6.4575 15.5254C6.46584 15.4604 6.47917 15.3958 6.4875 15.3262C6.56741 14.8622 6.67877 14.4042 6.82084 13.9554C6.8483 13.87 6.87705 13.7849 6.90709 13.7004C6.99792 13.4587 7.0975 13.2075 7.21417 12.9525C7.22709 12.9221 7.24 12.8921 7.2575 12.8658C7.53834 12.2691 8.3775 11.145 8.3775 11.145C8.85798 10.5692 9.41186 10.0589 10.025 9.62705C10.0725 9.59247 10.1242 9.55789 10.1721 9.52747C10.1846 9.51914 10.2021 9.5058 10.215 9.49747C11.4475 8.58497 11.0496 7.77205 10.5696 7.28747C10.3259 7.19768 10.1149 7.0365 9.96417 6.82497C9.95584 6.8208 9.95167 6.81664 9.95167 6.81664C9.78283 6.58724 9.69186 6.30981 9.69209 6.02497V6.01664C9.69318 5.65911 9.83567 5.31654 10.0884 5.0637C10.3412 4.81085 10.6837 4.66826 11.0413 4.66705H18.9288C19.2861 4.66837 19.6285 4.81095 19.8812 5.0637C20.1338 5.31644 20.2763 5.65884 20.2775 6.01622V6.02455C20.2775 6.33205 20.1692 6.62164 19.9921 6.8508C19.8521 7.03301 19.6673 7.17596 19.4558 7.2658H19.4517C18.9629 7.75039 18.535 8.57205 19.785 9.49705L19.8279 9.52747C19.8754 9.55789 19.9275 9.59247 19.975 9.62705C20.5881 10.0589 21.142 10.5692 21.6225 11.145C22.0643 11.671 22.4404 12.2489 22.7425 12.8658C22.7596 12.8916 22.7729 12.9221 22.7858 12.9525C22.8985 13.1954 22.9994 13.4436 23.0883 13.6962C23.1317 13.8129 23.1663 13.9254 23.2008 14.0337C23.2008 14.0379 23.205 14.0421 23.205 14.0462C23.2354 14.1504 23.2658 14.2583 23.2958 14.3621C23.3 14.3791 23.3088 14.4008 23.3133 14.4183C23.3258 14.4658 23.3392 14.5091 23.3479 14.5566C23.365 14.6216 23.3825 14.6862 23.3954 14.7554C23.4083 14.8204 23.4258 14.8808 23.4388 14.9458C23.4513 14.9975 23.4646 15.0541 23.4733 15.11C23.4733 15.1141 23.4733 15.1229 23.4775 15.1275C23.4992 15.2483 23.5208 15.3608 23.5379 15.4691C23.5596 15.6204 23.5771 15.7587 23.59 15.8841C23.5983 15.9708 23.6071 16.0529 23.6117 16.1262C23.6375 16.4766 23.6333 16.6846 23.6333 16.6846V16.6841Z" stroke="#34407D" stroke-width="0.5" stroke-miterlimit="10" stroke-linecap="round" stroke-linejoin="round"/>
<path d="M16.3292 15.1488C16.2163 14.7088 15.7271 14.3775 15.1404 14.3775C14.4704 14.3775 13.9271 14.81 13.9271 15.3438C13.9271 15.8775 14.4704 16.3096 15.1404 16.3096L15.1158 16.3133C15.7858 16.3133 16.3292 16.7458 16.3292 17.2796C16.3292 17.8133 15.7858 18.2458 15.1158 18.2458C14.5296 18.2458 14.0404 17.9146 13.9271 17.4742" stroke="#34407D" stroke-width="0.5" stroke-miterlimit="10" stroke-linecap="round" stroke-linejoin="round"/>
<path d="M15.1283 14.3775V13.4562" stroke="#34407D" stroke-width="0.5" stroke-miterlimit="10" stroke-linecap="round" stroke-linejoin="round"/>
<path d="M15.1283 19.1667V18.2454" stroke="#34407D" stroke-width="0.5" stroke-miterlimit="10" stroke-linecap="round" stroke-linejoin="round"/>
<path d="M9.16667 8.33331C9.16667 8.33331 6.66667 8.33331 6.66667 10.8333" stroke="#34407D" stroke-width="0.5" stroke-miterlimit="10" stroke-linecap="round" stroke-linejoin="round"/>
<path d="M7.08333 7.50002C7.08333 7.50002 6.25 7.50002 6.25 6.66669" stroke="#34407D" stroke-width="0.5" stroke-miterlimit="10" stroke-linecap="round" stroke-linejoin="round"/>
</svg>
