<svg width="50" height="50" viewBox="0 0 50 50" fill="none" xmlns="http://www.w3.org/2000/svg">
<g opacity="0.5">
<circle cx="25" cy="25" r="24.5" fill="#34407D" stroke="#34407D"/>
<line x1="10.7071" y1="10.2929" x2="39.7071" y2="39.2929" stroke="#FBFF22" stroke-width="2"/>
<line x1="39.7071" y1="10.7071" x2="10.7071" y2="39.7071" stroke="#FBFF22" stroke-width="2"/>
</g>
</svg>
